<?xml version="1.0" encoding="UTF-8" standalone="no"?>
<svg
   xmlns:dc="http://purl.org/dc/elements/1.1/"
   xmlns:cc="http://creativecommons.org/ns#"
   xmlns:rdf="http://www.w3.org/1999/02/22-rdf-syntax-ns#"
   xmlns:svg="http://www.w3.org/2000/svg"
   xmlns="http://www.w3.org/2000/svg"
   xmlns:xlink="http://www.w3.org/1999/xlink"
   xmlns:sodipodi="http://sodipodi.sourceforge.net/DTD/sodipodi-0.dtd"
   xmlns:inkscape="http://www.inkscape.org/namespaces/inkscape"
   inkscape:export-ydpi="96"
   inkscape:export-xdpi="96"
   sodipodi:docname="Square Logo.svg"
   inkscape:version="1.0.2 (e86c8708, 2021-01-15)"
   version="1.1"
   id="svg"
   height="1024"
   width="1024"
   shape-rendering="crispEdges">
  <title
     id="title">Square Logo</title>
  <sodipodi:namedview
     id="base"
     pagecolor="#ffffff"
     bordercolor="#666666"
     borderopacity="1.0"
     inkscape:pageopacity="1"
     inkscape:pageshadow="2"
     inkscape:zoom="4.9857957"
     inkscape:cx="176.23576"
     inkscape:cy="165.0192"
     inkscape:document-units="px"
     inkscape:current-layer="svg"
     showgrid="false"
     inkscape:window-width="1920"
     inkscape:window-height="1013"
     inkscape:window-x="0"
     inkscape:window-y="0"
     inkscape:window-maximized="1"
     inkscape:document-rotation="0"
     showborder="true"
     borderlayer="true"
     inkscape:showpageshadow="false"
     inkscape:pagecheckerboard="true"
     inkscape:object-paths="false"
     inkscape:snap-object-midpoints="true"
     inkscape:snap-midpoints="false"
     inkscape:snap-bbox="false"
     inkscape:bbox-nodes="true"
     inkscape:bbox-paths="true"
     inkscape:snap-others="true"
     inkscape:object-nodes="true"
     inkscape:snap-nodes="true"
     inkscape:snap-bbox-edge-midpoints="true"
     inkscape:snap-smooth-nodes="false"
     inkscape:snap-global="true"
     inkscape:snap-intersection-paths="false" />
  <defs
     id="defs">
    <linearGradient
       inkscape:collect="always"
       id="white-ray-gradient">
      <stop
         style="stop-color:#ffffff;stop-opacity:0"
         offset="0"
         id="white-ray-gradient-start" />
      <stop
         style="stop-color:#ffffff;stop-opacity:1"
         offset="0.5"
         id="white-ray-gradient-middle" />
      <stop
         style="stop-color:#ffffff;stop-opacity:1"
         offset="1"
         id="white-ray-gradient-end" />
    </linearGradient>
    <linearGradient
       inkscape:collect="always"
       id="background-gradient">
      <stop
         style="stop-color:#5e5e5e;stop-opacity:1"
         offset="0"
         id="background-gradient-start" />
      <stop
         style="stop-color:#2b2b2b;stop-opacity:1"
         offset="1"
         id="background-gradient-end" />
    </linearGradient>
    <linearGradient
       id="yellow-sphere-gradient">
      <stop
         id="yellow-sphere-gradient-start"
         offset="0"
         style="stop-color:#ffffff;stop-opacity:1;" />
      <stop
         id="yellow-sphere-gradient-end"
         offset="1"
         style="stop-color:#ffe000;stop-opacity:1;" />
    </linearGradient>
    <linearGradient
       id="orange-sphere-gradient">
      <stop
         id="orange-sphere-gradient-start"
         offset="0"
         style="stop-color:#ffffff;stop-opacity:1;" />
      <stop
         id="orange-sphere-gradient-end"
         offset="1"
         style="stop-color:#ffa000;stop-opacity:1;" />
    </linearGradient>
    <linearGradient
       id="green-sphere-gradient">
      <stop
         id="green-sphere-gradient-start"
         offset="0"
         style="stop-color:#ffffff;stop-opacity:1;" />
      <stop
         id="green-sphere-gradient-end"
         offset="1"
         style="stop-color:#087b07;stop-opacity:1;" />
    </linearGradient>
    <linearGradient
       id="blue-sphere-gradient">
      <stop
         id="blue-sphere-gradient-start"
         offset="0"
         style="stop-color:#ffffff;stop-opacity:1;" />
      <stop
         id="blue-sphere-gradient-end"
         offset="1"
         style="stop-color:#021383;stop-opacity:1;" />
    </linearGradient>
    <linearGradient
       id="purple-sphere-gradient">
      <stop
         id="purple-sphere-gradient-start"
         offset="0"
         style="stop-color:#ffffff;stop-opacity:1;" />
      <stop
         id="purple-sphere-gradient-end"
         offset="1"
         style="stop-color:#8e00ff;stop-opacity:1;" />
    </linearGradient>
    <linearGradient
       id="red-sphere-gradient">
      <stop
         id="red-sphere-gradient-start"
         offset="0"
         style="stop-color:#ffffff;stop-opacity:1;" />
      <stop
         id="red-sphere-gradient-end"
         offset="1"
         style="stop-color:#ff0400;stop-opacity:1;" />
    </linearGradient>
    <linearGradient
       id="grey-sphere-gradent">
      <stop
         id="grey-sphere-gradent-start"
         offset="0"
         style="stop-color:#ffffff;stop-opacity:1;" />
      <stop
         id="grey-sphere-gradent-end"
         offset="1"
         style="stop-color:#000000;stop-opacity:1;" />
    </linearGradient>
    <linearGradient
       inkscape:collect="always"
       xlink:href="#background-gradient"
       id="linearGradient3"
       x1="523.21747"
       y1="17.627542"
       x2="523.21753"
       y2="1041.6277"
       gradientUnits="userSpaceOnUse"
       gradientTransform="translate(-11.217532,-17.627547)" />
    <linearGradient
       inkscape:collect="always"
       xlink:href="#white-ray-gradient"
       id="linearGradient1"
       x1="0"
       y1="800.52997"
       x2="312"
       y2="800.52997"
       gradientUnits="userSpaceOnUse"
       gradientTransform="matrix(1.4395193,0,0,1.6417611,-231.27874,-661.7498)" />
    <radialGradient
       inkscape:collect="always"
       xlink:href="#purple-sphere-gradient"
       id="radialGradient12"
       gradientUnits="userSpaceOnUse"
       cx="827.7688"
       cy="424.88464"
       fx="827.7688"
       fy="424.88464"
       r="150"
       gradientTransform="matrix(0.5,0,0,0.5,436.46214,610.50647)" />
    <radialGradient
       inkscape:collect="always"
       xlink:href="#blue-sphere-gradient"
       id="radialGradient11"
       gradientUnits="userSpaceOnUse"
       gradientTransform="matrix(0.5,0,0,0.5,436.46202,456.87366)"
       cx="827.7688"
       cy="424.88464"
       fx="827.7688"
       fy="424.88464"
       r="150" />
    <radialGradient
       inkscape:collect="always"
       xlink:href="#green-sphere-gradient"
       id="radialGradient10"
       gradientUnits="userSpaceOnUse"
       gradientTransform="matrix(0.5,0,0,0.5,436.46207,306.87369)"
       cx="827.7688"
       cy="424.88464"
       fx="827.7688"
       fy="424.88464"
       r="150" />
    <radialGradient
       inkscape:collect="always"
       xlink:href="#yellow-sphere-gradient"
       id="radialGradient9"
       gradientUnits="userSpaceOnUse"
       gradientTransform="matrix(0.5,0,0,0.5,436.46203,153.28764)"
       cx="827.7688"
       cy="424.88464"
       fx="827.7688"
       fy="424.88464"
       r="150" />
    <radialGradient
       inkscape:collect="always"
       xlink:href="#orange-sphere-gradient"
       id="radialGradient8"
       gradientUnits="userSpaceOnUse"
       gradientTransform="matrix(0.5,0,0,0.5,436.46207,-11.407579)"
       cx="827.7688"
       cy="424.88464"
       fx="827.7688"
       fy="424.88464"
       r="150" />
    <radialGradient
       inkscape:collect="always"
       xlink:href="#red-sphere-gradient"
       id="radialGradient7"
       gradientUnits="userSpaceOnUse"
       gradientTransform="matrix(0.5,0,0,0.5,436.46207,-195.39198)"
       cx="827.7688"
       cy="424.88464"
       fx="827.7688"
       fy="424.88464"
       r="150" />
    <radialGradient
       inkscape:collect="always"
       xlink:href="#grey-sphere-gradent"
       id="radialGradient5"
       gradientUnits="userSpaceOnUse"
       gradientTransform="translate(-508.85971,-947.00064)"
       cx="827.7688"
       cy="424.88464"
       fx="827.7688"
       fy="424.88464"
       r="150" />
    <radialGradient
       inkscape:collect="always"
       xlink:href="#grey-sphere-gradent"
       id="radialGradient4"
       gradientUnits="userSpaceOnUse"
       gradientTransform="translate(-448.02707,-607.17159)"
       cx="827.7688"
       cy="424.88464"
       fx="827.7688"
       fy="424.88464"
       r="150" />
    <radialGradient
       inkscape:collect="always"
       xlink:href="#grey-sphere-gradent"
       id="radialGradient3"
       gradientUnits="userSpaceOnUse"
       gradientTransform="translate(-106.03208,-560.01389)"
       cx="827.7688"
       cy="424.88464"
       fx="827.7688"
       fy="424.88464"
       r="150" />
    <radialGradient
       inkscape:collect="always"
       xlink:href="#grey-sphere-gradent"
       id="radialGradient2"
       cx="827.7688"
       cy="424.88464"
       fx="827.7688"
       fy="424.88464"
       r="150"
       gradientUnits="userSpaceOnUse"
       gradientTransform="translate(44.499815,-870.69793)" />
    <radialGradient
       inkscape:collect="always"
       xlink:href="#grey-sphere-gradent"
       id="radialGradient1"
       gradientUnits="userSpaceOnUse"
       cx="827.7688"
       cy="424.88464"
       fx="827.7688"
       fy="424.88464"
       r="150"
       gradientTransform="translate(-204.46134,-1109.8689)" />
  </defs>
  <metadata
     id="metadata">
    <rdf:RDF>
      <cc:Work
         rdf:about="">
        <dc:format>image/svg+xml</dc:format>
        <dc:type
           rdf:resource="http://purl.org/dc/dcmitype/StillImage" />
        <dc:title>Square Logo</dc:title>
      </cc:Work>
    </rdf:RDF>
  </metadata>
  <rect
     style="display:inline;fill:url(#linearGradient3);fill-opacity:1;stroke:none;stroke-width:4;stroke-miterlimit:4;stroke-dasharray:none"
     id="rect3"
     width="1024"
     height="1024"
     x="0"
     y="0"
     inkscape:label="Background" />
  <g
     id="layer1"
     inkscape:label="Logo"
     transform="translate(23.850006,21.080044)">
    <rect
       style="display:none;fill:#ff0000;fill-opacity:0.25486;stroke:none;stroke-width:4.07849;stroke-miterlimit:4;stroke-dasharray:none"
       id="rect2"
       width="815.70001"
       height="815.70001"
       x="80.299988"
       y="83.069954"
       inkscape:label="Bounding Box" />
    <g
       id="layer4"
       inkscape:label="Color Group">
      <g
         id="g3763"
         inkscape:label="Color Gaps (Hack)"
         style="display:inline">
        <path
           style="display:inline;fill:#c882ff;fill-opacity:1;stroke:none;stroke-width:1px;stroke-linecap:butt;stroke-linejoin:miter;stroke-opacity:1"
           d="M 249.71597,639.66995 825.16375,702.9312 810.04154,824.47293 Z"
           id="path12"
           inkscape:label="Blue Purple Gap"
           sodipodi:nodetypes="cccc" />
        <path
           style="display:inline;fill:#8494fd;fill-opacity:1;stroke:none;stroke-width:1px;stroke-linecap:butt;stroke-linejoin:miter;stroke-opacity:1"
           d="M 249.71597,639.66995 832,703.66996 v -128 z"
           id="path11"
           inkscape:label="Green Blue Gap"
           sodipodi:nodetypes="cccc" />
        <path
           style="display:inline;fill:#93f892;fill-opacity:1;stroke:none;stroke-width:1px;stroke-linecap:butt;stroke-linejoin:miter;stroke-opacity:1"
           d="M 249.71597,639.66995 825.15424,576.41079 809.01894,450.31063 Z"
           id="path10"
           inkscape:label="Yellow Green Gap"
           sodipodi:nodetypes="cccc" />
        <path
           style="display:inline;fill:#fff39d;fill-opacity:1;stroke:none;stroke-width:1px;stroke-linecap:butt;stroke-linejoin:miter;stroke-opacity:1"
           d="M 249.71597,639.66995 784.70189,333.06982 825.74171,446.77614 Z"
           id="path9"
           inkscape:label="Orange Yellow Gap"
           sodipodi:nodetypes="cccc" />
        <path
           style="display:inline;fill:#ffd48a;fill-opacity:1;stroke:none;stroke-width:1px;stroke-linecap:butt;stroke-linejoin:miter;stroke-opacity:1"
           d="M 249.71597,639.66995 765.1721,202.89754 826.67361,307.16347 Z"
           id="path8"
           inkscape:label="Red Orange Gap"
           sodipodi:nodetypes="cccc" />
        <text
           xml:space="preserve"
           style="font-style:normal;font-weight:normal;font-size:32px;line-height:1.25;font-family:sans-serif;display:none;fill:#000000;fill-opacity:1;stroke:none"
           x="51.149994"
           y="78.232452"
           id="text1"
           inkscape:label="Info"><tspan
             sodipodi:role="line"
             id="tspan1"
             x="0"
             y="0"
             style="font-style:normal;font-variant:normal;font-weight:bold;font-stretch:normal;font-size:32px;font-family:sans-serif;-inkscape-font-specification:'sans-serif Bold';fill:#ffffff;fill-opacity:1">Gaps hack:</tspan><tspan
             sodipodi:role="line"
             x="0"
             y="0"
             id="tspan2"
             style="font-size:32px;fill:#ffffff;fill-opacity:1">When exporting as PNG,</tspan><tspan
             sodipodi:role="line"
             x="0"
             y="0"
             id="tspan3"
             style="font-size:32px;fill:#ffffff;fill-opacity:1">the background shines through</tspan><tspan
             sodipodi:role="line"
             x="0"
             y="0"
             id="tspan4"
             style="font-size:32px;fill:#ffffff;fill-opacity:1">the gaps between rays.</tspan><tspan
             sodipodi:role="line"
             x="0"
             y="0"
             id="tspan5"
             style="font-size:32px;fill:#ffffff;fill-opacity:1">Thus, added colored fillers.</tspan></text>
      </g>
      <g
         id="layer6"
         inkscape:label="Color Rays"
         style="display:inline">
        <path
           style="display:inline;fill:#c882ff;fill-opacity:1;stroke:none;stroke-width:1px;stroke-linecap:butt;stroke-linejoin:miter;stroke-opacity:1"
           d="M 249.71597,639.66995 845.55051,772.22091 805.75681,893.142 Z"
           id="path7"
           inkscape:label="Purple Ray"
           sodipodi:nodetypes="cccc" />
        <path
           style="display:inline;fill:#8494fd;fill-opacity:1;stroke:none;stroke-width:1px;stroke-linecap:butt;stroke-linejoin:miter;stroke-opacity:1"
           d="M 249.71597,639.66995 832,639.66996 818.32749,766.19245 Z"
           id="path6"
           inkscape:label="Blue Ray"
           sodipodi:nodetypes="cccc" />
        <path
           style="display:inline;fill:#93f892;fill-opacity:1;stroke:none;stroke-width:1px;stroke-linecap:butt;stroke-linejoin:miter;stroke-opacity:1"
           d="M 249.71597,639.66995 832,639.66996 818.30848,513.15162 Z"
           id="path5"
           inkscape:label="Green Ray"
           sodipodi:nodetypes="cccc" />
        <path
           style="display:inline;fill:#fff39d;fill-opacity:1;stroke:none;stroke-width:1px;stroke-linecap:butt;stroke-linejoin:miter;stroke-opacity:1"
           d="M 249.71597,639.66995 804.92029,386.62126 846.56314,506.93102 Z"
           id="path4"
           inkscape:label="Yellow Ray"
           sodipodi:nodetypes="cccc" />
        <path
           style="display:inline;fill:#ffd48a;fill-opacity:1;stroke:none;stroke-width:1px;stroke-linecap:butt;stroke-linejoin:miter;stroke-opacity:1"
           d="M 249.71597,639.66995 794.68004,252.07744 858.66718,362.24951 Z"
           id="path3"
           inkscape:label="Orange Ray"
           sodipodi:nodetypes="cccc" />
        <path
           style="display:inline;fill:#ff8582;fill-opacity:1;stroke:none;stroke-width:1px;stroke-linecap:butt;stroke-linejoin:miter;stroke-opacity:1"
           d="m 249.71597,639.66995 536.69149,-537.51459 83.09058,96.7788 z"
           id="path2"
           inkscape:label="Red Ray"
           sodipodi:nodetypes="cccc" />
      </g>
      <g
         id="layer5"
         inkscape:label="Color Spheres"
         style="display:inline"
         transform="matrix(0.85333333,0,0,0.85333333,117.76,117.42996)">
        <circle
           style="display:inline;opacity:1;fill:url(#radialGradient12);fill-opacity:1;stroke:none;stroke-width:2;stroke-miterlimit:4;stroke-dasharray:none;stroke-dashoffset:0;stroke-opacity:1"
           id="circle12"
           cx="837"
           cy="840.63281"
           inkscape:label="Purple Sphere"
           r="75" />
        <circle
           style="display:inline;opacity:1;fill:url(#radialGradient11);fill-opacity:1;stroke:none;stroke-width:2;stroke-miterlimit:4;stroke-dasharray:none;stroke-dashoffset:0;stroke-opacity:1"
           id="circle11"
           cx="837"
           cy="687"
           inkscape:label="Blue Sphere"
           r="75" />
        <circle
           style="display:inline;opacity:1;fill:url(#radialGradient10);fill-opacity:1;stroke:none;stroke-width:2;stroke-miterlimit:4;stroke-dasharray:none;stroke-dashoffset:0;stroke-opacity:1"
           id="circle10"
           cx="837"
           cy="537"
           inkscape:label="Green Sphere"
           r="75" />
        <circle
           style="display:inline;opacity:1;fill:url(#radialGradient9);fill-opacity:1;stroke:none;stroke-width:2;stroke-miterlimit:4;stroke-dasharray:none;stroke-dashoffset:0;stroke-opacity:1"
           id="circle9"
           cx="837"
           cy="383.41406"
           inkscape:label="Yellow Sphere"
           r="75" />
        <circle
           style="display:inline;opacity:1;fill:url(#radialGradient8);fill-opacity:1;stroke:none;stroke-width:2;stroke-miterlimit:4;stroke-dasharray:none;stroke-dashoffset:0;stroke-opacity:1"
           id="circle8"
           cx="837"
           cy="218.71873"
           inkscape:label="Orange Sphere"
           r="75" />
        <circle
           style="display:inline;opacity:1;fill:url(#radialGradient7);fill-opacity:1;stroke:none;stroke-width:2;stroke-miterlimit:4;stroke-dasharray:none;stroke-dashoffset:0;stroke-opacity:1"
           id="circle7"
           cx="837"
           cy="34.734364"
           inkscape:label="Red Sphere"
           r="75" />
      </g>
    </g>
    <g
       id="layer2"
       inkscape:label="Prism Group"
       style="display:inline;opacity:1"
       transform="matrix(0.60910203,0,0,0.60910203,117.02234,242.21312)">
      <rect
         style="display:inline;fill:url(#linearGradient1);fill-opacity:1;stroke:none;stroke-width:6.14928;stroke-miterlimit:4;stroke-dasharray:none"
         id="rect1"
         width="449.12997"
         height="13.134089"
         x="-231.27873"
         y="645.9621"
         inkscape:label="White Ray" />
      <path
         sodipodi:type="star"
         style="display:inline;opacity:1;fill:#ffffff;fill-opacity:1;stroke:none;stroke-width:3.84;stroke-miterlimit:4;stroke-dasharray:none"
         id="path1"
         sodipodi:sides="3"
         sodipodi:cx="217.85124"
         sodipodi:cy="652.52917"
         sodipodi:r1="221.7025"
         sodipodi:r2="110.85124"
         sodipodi:arg1="-1.5707963"
         sodipodi:arg2="-0.52359878"
         inkscape:flatsided="true"
         inkscape:rounded="0"
         inkscape:randomized="0"
         d="m 217.85125,430.82668 191.99999,332.55375 -383.999997,-1e-5 z"
         inkscape:transform-center-y="-55.425611"
         inkscape:label="Prism"
         inkscape:transform-center-x="-1.1231721e-05" />
      <g
         id="layer3"
         inkscape:label="Grey Spheres"
         style="display:inline"
         transform="matrix(0.14235708,0,0,0.14235708,138.62955,703.59234)">
        <circle
           style="display:none;opacity:1;fill:#ffff00;fill-opacity:0.25;stroke:none;stroke-width:1.97782"
           id="circle6"
           cx="556.49982"
           cy="-358.69794"
           r="445"
           inkscape:label="Centering Circle" />
        <circle
           style="display:inline;opacity:1;fill:url(#radialGradient5);fill-opacity:1;stroke:none;stroke-width:4;stroke-miterlimit:4;stroke-dasharray:none;stroke-dashoffset:0;stroke-opacity:1"
           id="circle5"
           cx="292.21619"
           cy="-486.74799"
           r="150"
           inkscape:label="Grey Sphere 5" />
        <circle
           style="display:inline;opacity:1;fill:url(#radialGradient4);fill-opacity:1;stroke:none;stroke-width:4;stroke-miterlimit:4;stroke-dasharray:none;stroke-dashoffset:0;stroke-opacity:1"
           id="circle4"
           cx="353.04883"
           cy="-146.91893"
           r="150"
           inkscape:label="Grey Sphere 4" />
        <circle
           style="display:inline;opacity:1;fill:url(#radialGradient3);fill-opacity:1;stroke:none;stroke-width:4;stroke-miterlimit:4;stroke-dasharray:none;stroke-dashoffset:0;stroke-opacity:1"
           id="circle3"
           cx="695.04382"
           cy="-99.761215"
           r="150"
           inkscape:label="Grey Sphere 3" />
        <circle
           style="display:inline;opacity:1;fill:url(#radialGradient2);fill-opacity:1;stroke:none;stroke-width:4;stroke-miterlimit:4;stroke-dasharray:none;stroke-dashoffset:0;stroke-opacity:1"
           id="circle2"
           cx="845.57568"
           cy="-410.44528"
           r="150"
           inkscape:label="Grey Sphere 2" />
        <circle
           style="display:inline;opacity:1;fill:url(#radialGradient1);fill-opacity:1;stroke:none;stroke-width:4;stroke-miterlimit:4;stroke-dasharray:none;stroke-dashoffset:0;stroke-opacity:1"
           id="circle1"
           cx="596.61456"
           cy="-649.61621"
           r="150"
           inkscape:label="Grey Sphere 1" />
      </g>
    </g>
  </g>
</svg>
