<?xml version="1.0" encoding="UTF-8" standalone="no"?>
<svg
   xmlns:dc="http://purl.org/dc/elements/1.1/"
   xmlns:cc="http://creativecommons.org/ns#"
   xmlns:rdf="http://www.w3.org/1999/02/22-rdf-syntax-ns#"
   xmlns:svg="http://www.w3.org/2000/svg"
   xmlns="http://www.w3.org/2000/svg"
   xmlns:xlink="http://www.w3.org/1999/xlink"
   xmlns:sodipodi="http://sodipodi.sourceforge.net/DTD/sodipodi-0.dtd"
   xmlns:inkscape="http://www.inkscape.org/namespaces/inkscape"
   width="1024"
   height="1024"
   version="1.1"
   inkscape:version="1.0.2 (e86c8708, 2021-01-15)"
   sodipodi:docname="Grey Spheres.svg"
   inkscape:export-xdpi="90"
   inkscape:export-ydpi="90"
   shape-rendering="crispEdges"
   id="svg">
  <title
     id="title">Grey Spheres</title>
  <defs
     id="defs">
    <linearGradient
       id="grey-sphere-gradient">
      <stop
         offset="0"
         style="stop-color:#ffffff;stop-opacity:1;"
         id="grey-sphere-gradient-start" />
      <stop
         offset="1"
         style="stop-color:#000000;stop-opacity:1"
         id="grey-sphere-gradient-end" />
    </linearGradient>
    <radialGradient
       inkscape:collect="always"
       xlink:href="#grey-sphere-gradient"
       id="radialGradient5"
       gradientUnits="userSpaceOnUse"
       gradientTransform="translate(-553.35952,-76.302719)"
       cx="827.7688"
       cy="424.88464"
       fx="827.7688"
       fy="424.88464"
       r="150" />
    <radialGradient
       inkscape:collect="always"
       xlink:href="#grey-sphere-gradient"
       id="radialGradient4"
       gradientUnits="userSpaceOnUse"
       gradientTransform="translate(-492.52688,263.52634)"
       cx="827.7688"
       cy="424.88464"
       fx="827.7688"
       fy="424.88464"
       r="150" />
    <radialGradient
       inkscape:collect="always"
       xlink:href="#grey-sphere-gradient"
       id="radialGradient3"
       gradientUnits="userSpaceOnUse"
       gradientTransform="translate(-150.53189,310.68404)"
       cx="827.7688"
       cy="424.88464"
       fx="827.7688"
       fy="424.88464"
       r="150" />
    <radialGradient
       inkscape:collect="always"
       xlink:href="#grey-sphere-gradient"
       id="radialGradient2"
       cx="827.7688"
       cy="424.88464"
       fx="827.7688"
       fy="424.88464"
       r="150"
       gradientUnits="userSpaceOnUse" />
    <radialGradient
       inkscape:collect="always"
       xlink:href="#grey-sphere-gradient"
       id="radialGradient1"
       gradientUnits="userSpaceOnUse"
       cx="827.7688"
       cy="424.88464"
       fx="827.7688"
       fy="424.88464"
       r="150"
       gradientTransform="translate(-248.96115,-239.17096)" />
  </defs>
  <sodipodi:namedview
     id="base"
     pagecolor="#ffffff"
     bordercolor="#666666"
     borderopacity="1.0"
     inkscape:pageopacity="0.0"
     inkscape:pageshadow="2"
     inkscape:zoom="1"
     inkscape:cx="112.29282"
     inkscape:cy="21.42554"
     inkscape:document-units="px"
     showgrid="false"
     inkscape:window-width="1920"
     inkscape:window-height="1137"
     inkscape:window-x="0"
     inkscape:window-y="0"
     inkscape:window-maximized="1"
     inkscape:document-rotation="0"
     borderlayer="true"
     inkscape:showpageshadow="false"
     inkscape:pagecheckerboard="true"
     inkscape:snap-object-midpoints="true"
     inkscape:current-layer="layer2" />
  <metadata
     id="metadata">
    <rdf:RDF>
      <cc:Work
         rdf:about="">
        <dc:format>image/svg+xml</dc:format>
        <dc:type
           rdf:resource="http://purl.org/dc/dcmitype/StillImage" />
        <dc:title>Grey Spheres</dc:title>
      </cc:Work>
    </rdf:RDF>
  </metadata>
  <g
     id="layer2"
     inkscape:label="Grey Spheres"
     style="display:inline"
     inkscape:groupmode="layer"
     sodipodi:insensitive="true">
    <circle
       style="display:inline;opacity:1;fill:url(#radialGradient5);fill-opacity:1;stroke:none;stroke-width:4;stroke-miterlimit:4;stroke-dasharray:none;stroke-dashoffset:0;stroke-opacity:1"
       id="circle5"
       cx="247.71638"
       cy="383.94995"
       r="150"
       inkscape:label="Grey Sphere 5" />
    <circle
       style="display:inline;opacity:1;fill:url(#radialGradient4);fill-opacity:1;stroke:none;stroke-width:4;stroke-miterlimit:4;stroke-dasharray:none;stroke-dashoffset:0;stroke-opacity:1"
       id="circle4"
       cx="308.54901"
       cy="723.77899"
       r="150"
       inkscape:label="Grey Sphere 4" />
    <circle
       style="display:inline;opacity:1;fill:url(#radialGradient3);fill-opacity:1;stroke:none;stroke-width:4;stroke-miterlimit:4;stroke-dasharray:none;stroke-dashoffset:0;stroke-opacity:1"
       id="circle3"
       cx="650.54401"
       cy="770.93671"
       r="150"
       inkscape:label="Grey Sphere 3" />
    <circle
       style="display:inline;opacity:1;fill:url(#radialGradient2);fill-opacity:1;stroke:none;stroke-width:4;stroke-miterlimit:4;stroke-dasharray:none;stroke-dashoffset:0;stroke-opacity:1"
       id="circle2"
       cx="801.07587"
       cy="460.25266"
       r="150"
       inkscape:label="Grey Sphere 2" />
    <circle
       style="display:inline;opacity:1;fill:url(#radialGradient1);fill-opacity:1;stroke:none;stroke-width:4;stroke-miterlimit:4;stroke-dasharray:none;stroke-dashoffset:0;stroke-opacity:1"
       id="circle1"
       cx="552.11475"
       cy="221.0817"
       r="150"
       inkscape:label="Grey Sphere 1" />
  </g>
  <g
     id="layer1"
     inkscape:label="Construction"
     style="display:none"
     inkscape:groupmode="layer">
    <rect
       style="display:inline;opacity:1;fill:#0000ff;fill-opacity:0.25;stroke:none;stroke-width:2"
       id="rect1"
       width="1024"
       height="1024"
       x="0"
       y="0"
       inkscape:label="Centering Box" />
    <circle
       style="display:inline;opacity:1;fill:#ffff00;fill-opacity:0.25;stroke:none;stroke-width:1.97782"
       id="circle6"
       cx="512"
       cy="512"
       r="445"
       inkscape:label="Centering Circle" />
    <path
       sodipodi:type="star"
       style="display:inline;opacity:1;fill:#00ff00;fill-opacity:0.25;fill-rule:evenodd;stroke-width:4.58177"
       id="path1"
       sodipodi:sides="5"
       sodipodi:cx="512"
       sodipodi:cy="512"
       sodipodi:r1="293.67099"
       sodipodi:r2="237.58482"
       sodipodi:arg1="-1.5707963"
       sodipodi:arg2="-0.9424778"
       inkscape:flatsided="true"
       inkscape:rounded="0"
       inkscape:randomized="0"
       d="M 512.00001,218.32901 791.29771,421.25068 684.61547,749.58483 339.38452,749.58482 232.70229,421.25067 Z"
       inkscape:transform-center-y="-15.990819"
       inkscape:transform-center-x="-12.396125"
       transform="rotate(7.8510031,512,512)"
       inkscape:label="Rotation Polygon" />
  </g>
</svg>
