<?xml version="1.0" encoding="UTF-8" standalone="no"?>
<svg
   xmlns:dc="http://purl.org/dc/elements/1.1/"
   xmlns:cc="http://creativecommons.org/ns#"
   xmlns:rdf="http://www.w3.org/1999/02/22-rdf-syntax-ns#"
   xmlns:svg="http://www.w3.org/2000/svg"
   xmlns="http://www.w3.org/2000/svg"
   xmlns:xlink="http://www.w3.org/1999/xlink"
   xmlns:sodipodi="http://sodipodi.sourceforge.net/DTD/sodipodi-0.dtd"
   xmlns:inkscape="http://www.inkscape.org/namespaces/inkscape"
   width="32"
   height="32"
   viewBox="0 0 8.4666659 8.4666659"
   version="1.1"
   id="svg76"
   shape-rendering="crispEdges"
   inkscape:version="1.0.2 (e86c8708, 2021-01-15)"
   sodipodi:docname="cpd_icon.svg"
   inkscape:export-xdpi="48"
   inkscape:export-ydpi="48">
  <title
     id="title78">User Interface</title>
  <defs
     id="defs70">
    <radialGradient
       inkscape:collect="always"
       xlink:href="#grey-sphere-gradient"
       id="radialGradient1"
       gradientUnits="userSpaceOnUse"
       cx="827.7688"
       cy="424.88464"
       fx="827.7688"
       fy="424.88464"
       r="150"
       gradientTransform="matrix(0.02645833,0,0,0.02645833,-16.9618,-7.9441852)" />
    <linearGradient
       id="grey-sphere-gradient">
      <stop
         offset="0"
         style="stop-color:#808080;stop-opacity:1"
         id="grey-sphere-gradient-start" />
      <stop
         offset="1"
         style="stop-color:#000000;stop-opacity:1"
         id="grey-sphere-gradient-end" />
    </linearGradient>
  </defs>
  <sodipodi:namedview
     id="base"
     pagecolor="#ffffff"
     bordercolor="#666666"
     borderopacity="1.0"
     inkscape:pageopacity="0.0"
     inkscape:pageshadow="2"
     inkscape:zoom="0.35"
     inkscape:cx="400"
     inkscape:cy="560"
     inkscape:document-units="mm"
     inkscape:current-layer="svg76"
     inkscape:document-rotation="0"
     showgrid="false"
     borderlayer="true"
     inkscape:showpageshadow="false"
     inkscape:pagecheckerboard="true"
     units="px"
     inkscape:snap-object-midpoints="true"
     inkscape:object-nodes="false"
     inkscape:snap-bbox="true"
     inkscape:snap-bbox-midpoints="true" />
  <metadata
     id="metadata73">
    <rdf:RDF>
      <cc:Work
         rdf:about="">
        <dc:format>image/svg+xml</dc:format>
        <dc:type
           rdf:resource="http://purl.org/dc/dcmitype/StillImage" />
        <dc:title>User Interface</dc:title>
      </cc:Work>
    </rdf:RDF>
  </metadata>
  <circle
     style="display:inline;fill:url(#radialGradient1);fill-opacity:1;stroke:none;stroke-width:0.105833;stroke-miterlimit:4;stroke-dasharray:none;stroke-dashoffset:0;stroke-opacity:1"
     id="circle1"
     cx="4.2333331"
     cy="4.2333331"
     inkscape:label="Grey Sphere"
     r="3.96875" />
  <text
     xml:space="preserve"
     style="font-style:normal;font-variant:normal;font-weight:bold;font-stretch:normal;font-size:6.70278px;line-height:1;font-family:Arial;-inkscape-font-specification:'Arial Bold';display:none;fill:#00ebff;fill-opacity:1;stroke:none;stroke-width:0.264583"
     x="4.2791533"
     y="6.6306901"
     id="text961-4"
     inkscape:label="MSL"><tspan
       id="tspan959-7"
       x="0"
       y="0"
       style="font-style:normal;font-variant:normal;font-weight:bold;font-stretch:normal;font-size:6.70278px;font-family:Arial;-inkscape-font-specification:'Arial Bold';text-align:center;text-anchor:middle;fill:#00ebff;fill-opacity:1;stroke-width:0.264583"
       sodipodi:role="line">S</tspan></text>
  <text
     xml:space="preserve"
     style="font-style:normal;font-variant:normal;font-weight:bold;font-stretch:normal;font-size:6.70278px;line-height:1;font-family:Arial;-inkscape-font-specification:'Arial Bold';display:none;fill:#00ff08;fill-opacity:1;stroke:none;stroke-width:0.264583"
     x="4.1744437"
     y="6.6323266"
     id="text961"
     inkscape:label="MGL"><tspan
       id="tspan959"
       x="0"
       y="0"
       style="font-style:normal;font-variant:normal;font-weight:bold;font-stretch:normal;font-size:6.70278px;font-family:Arial;-inkscape-font-specification:'Arial Bold';text-align:center;text-anchor:middle;fill:#00ff08;fill-opacity:1;stroke-width:0.264583"
       sodipodi:role="line">G</tspan></text>
  <text
     xml:space="preserve"
     style="font-style:normal;font-variant:normal;font-weight:bold;font-stretch:normal;font-size:6.70278px;line-height:1;font-family:Arial;-inkscape-font-specification:'Arial Bold';word-spacing:0px;display:inline;fill:#ffcc00;fill-opacity:1;stroke:none;stroke-width:0.264584"
     x="4.3469701"
     y="6.731986"
     id="text1163"
     inkscape:label="CPD"><tspan
       id="tspan1161"
       x="4.3469701"
       y="6.731986"
       style="font-style:normal;font-variant:normal;font-weight:bold;font-stretch:normal;font-size:6.70278px;font-family:Arial;-inkscape-font-specification:'Arial Bold';text-align:center;text-anchor:middle;fill:#ffcc00;fill-opacity:1;stroke-width:0.264584"
       sodipodi:role="line">P</tspan></text>
  <text
     xml:space="preserve"
     style="font-style:normal;font-variant:normal;font-weight:bold;font-stretch:normal;font-size:6.70278px;line-height:1;font-family:Arial;-inkscape-font-specification:'Arial Bold';display:none;fill:#ffffff;fill-opacity:1;stroke:none;stroke-width:0.264583"
     x="4.1744437"
     y="6.6323266"
     id="text867"
     inkscape:label="Generate"><tspan
       id="tspan865"
       x="0"
       y="0"
       style="font-style:normal;font-variant:normal;font-weight:bold;font-stretch:normal;font-size:6.70278px;font-family:Arial;-inkscape-font-specification:'Arial Bold';text-align:center;text-anchor:middle;fill:#ffffff;fill-opacity:1;stroke-width:0.264583"
       sodipodi:role="line">G</tspan></text>
</svg>
