<?xml version="1.0" encoding="UTF-8" standalone="no"?>
<svg
   xmlns:dc="http://purl.org/dc/elements/1.1/"
   xmlns:cc="http://creativecommons.org/ns#"
   xmlns:rdf="http://www.w3.org/1999/02/22-rdf-syntax-ns#"
   xmlns:svg="http://www.w3.org/2000/svg"
   xmlns="http://www.w3.org/2000/svg"
   xmlns:xlink="http://www.w3.org/1999/xlink"
   xmlns:sodipodi="http://sodipodi.sourceforge.net/DTD/sodipodi-0.dtd"
   xmlns:inkscape="http://www.inkscape.org/namespaces/inkscape"
   inkscape:export-ydpi="96"
   inkscape:export-xdpi="96"
   sodipodi:docname="splash.svg"
   inkscape:version="1.0.2 (e86c8708, 2021-01-15)"
   version="1.1"
   id="svg"
   height="660"
   width="1000"
   shape-rendering="crispEdges">
  <title
     id="title">Splash</title>
  <sodipodi:namedview
     id="base"
     pagecolor="#ffffff"
     bordercolor="#666666"
     borderopacity="1.0"
     inkscape:pageopacity="1"
     inkscape:pageshadow="2"
     inkscape:zoom="4.9857957"
     inkscape:cx="176.23576"
     inkscape:cy="165.0192"
     inkscape:document-units="px"
     inkscape:current-layer="svg"
     showgrid="false"
     inkscape:window-width="1920"
     inkscape:window-height="1013"
     inkscape:window-x="0"
     inkscape:window-y="0"
     inkscape:window-maximized="1"
     inkscape:document-rotation="0"
     showborder="true"
     borderlayer="true"
     inkscape:showpageshadow="false"
     inkscape:pagecheckerboard="true"
     inkscape:object-paths="false"
     inkscape:snap-object-midpoints="true"
     inkscape:snap-midpoints="false"
     inkscape:snap-bbox="true"
     inkscape:bbox-nodes="true"
     inkscape:bbox-paths="true"
     inkscape:snap-others="false"
     inkscape:object-nodes="true"
     inkscape:snap-nodes="false"
     inkscape:snap-bbox-edge-midpoints="true"
     inkscape:snap-smooth-nodes="false"
     inkscape:snap-global="true"
     inkscape:snap-intersection-paths="false" />
  <defs
     id="defs">
    <linearGradient
       inkscape:collect="always"
       id="white-ray-gradient">
      <stop
         style="stop-color:#ffffff;stop-opacity:0"
         offset="0"
         id="white-ray-gradient-start" />
      <stop
         style="stop-color:#ffffff;stop-opacity:1"
         offset="0.5"
         id="white-ray-gradient-middle" />
      <stop
         style="stop-color:#ffffff;stop-opacity:1"
         offset="1"
         id="white-ray-gradient-end" />
    </linearGradient>
    <linearGradient
       inkscape:collect="always"
       id="background-gradient">
      <stop
         style="stop-color:#5e5e5e;stop-opacity:1"
         offset="0"
         id="background-gradient-start" />
      <stop
         style="stop-color:#2b2b2b;stop-opacity:1"
         offset="1"
         id="background-gradient-end" />
    </linearGradient>
    <linearGradient
       id="yellow-sphere-gradient">
      <stop
         id="yellow-sphere-gradient-start"
         offset="0"
         style="stop-color:#ffffff;stop-opacity:1;" />
      <stop
         id="yellow-sphere-gradient-end"
         offset="1"
         style="stop-color:#ffe000;stop-opacity:1;" />
    </linearGradient>
    <linearGradient
       id="orange-sphere-gradient">
      <stop
         id="orange-sphere-gradient-start"
         offset="0"
         style="stop-color:#ffffff;stop-opacity:1;" />
      <stop
         id="orange-sphere-gradient-end"
         offset="1"
         style="stop-color:#ffa000;stop-opacity:1;" />
    </linearGradient>
    <linearGradient
       id="green-sphere-gradient">
      <stop
         id="green-sphere-gradient-start"
         offset="0"
         style="stop-color:#ffffff;stop-opacity:1;" />
      <stop
         id="green-sphere-gradient-end"
         offset="1"
         style="stop-color:#087b07;stop-opacity:1;" />
    </linearGradient>
    <linearGradient
       id="blue-sphere-gradient">
      <stop
         id="blue-sphere-gradient-start"
         offset="0"
         style="stop-color:#ffffff;stop-opacity:1;" />
      <stop
         id="blue-sphere-gradient-end"
         offset="1"
         style="stop-color:#021383;stop-opacity:1;" />
    </linearGradient>
    <linearGradient
       id="purple-sphere-gradient">
      <stop
         id="purple-sphere-gradient-start"
         offset="0"
         style="stop-color:#ffffff;stop-opacity:1;" />
      <stop
         id="purple-sphere-gradient-end"
         offset="1"
         style="stop-color:#8e00ff;stop-opacity:1;" />
    </linearGradient>
    <linearGradient
       id="red-sphere-gradient">
      <stop
         id="red-sphere-gradient-start"
         offset="0"
         style="stop-color:#ffffff;stop-opacity:1;" />
      <stop
         id="red-sphere-gradient-end"
         offset="1"
         style="stop-color:#ff0400;stop-opacity:1;" />
    </linearGradient>
    <linearGradient
       id="grey-sphere-gradent">
      <stop
         id="grey-sphere-gradent-start"
         offset="0"
         style="stop-color:#ffffff;stop-opacity:1;" />
      <stop
         id="grey-sphere-gradent-end"
         offset="1"
         style="stop-color:#000000;stop-opacity:1;" />
    </linearGradient>
    <linearGradient
       inkscape:collect="always"
       xlink:href="#background-gradient"
       id="linearGradient3"
       x1="523.21747"
       y1="17.627542"
       x2="523.21753"
       y2="1041.6277"
       gradientUnits="userSpaceOnUse"
       gradientTransform="matrix(0.64453125,0,0,0.64453125,-7.23005,-11.361505)" />
    <linearGradient
       inkscape:collect="always"
       xlink:href="#white-ray-gradient"
       id="linearGradient1"
       x1="0"
       y1="800.52997"
       x2="312"
       y2="800.52997"
       gradientUnits="userSpaceOnUse"
       gradientTransform="matrix(3.6672891,0,0,1.6417611,-926.34303,-661.7498)" />
    <radialGradient
       inkscape:collect="always"
       xlink:href="#purple-sphere-gradient"
       id="radialGradient12"
       gradientUnits="userSpaceOnUse"
       cx="827.7688"
       cy="424.88464"
       fx="827.7688"
       fy="424.88464"
       r="150"
       gradientTransform="matrix(0.5,0,0,0.5,436.46214,610.50647)" />
    <radialGradient
       inkscape:collect="always"
       xlink:href="#blue-sphere-gradient"
       id="radialGradient11"
       gradientUnits="userSpaceOnUse"
       gradientTransform="matrix(0.5,0,0,0.5,436.46202,456.87366)"
       cx="827.7688"
       cy="424.88464"
       fx="827.7688"
       fy="424.88464"
       r="150" />
    <radialGradient
       inkscape:collect="always"
       xlink:href="#green-sphere-gradient"
       id="radialGradient10"
       gradientUnits="userSpaceOnUse"
       gradientTransform="matrix(0.5,0,0,0.5,436.46207,306.87369)"
       cx="827.7688"
       cy="424.88464"
       fx="827.7688"
       fy="424.88464"
       r="150" />
    <radialGradient
       inkscape:collect="always"
       xlink:href="#yellow-sphere-gradient"
       id="radialGradient9"
       gradientUnits="userSpaceOnUse"
       gradientTransform="matrix(0.5,0,0,0.5,436.46203,153.28764)"
       cx="827.7688"
       cy="424.88464"
       fx="827.7688"
       fy="424.88464"
       r="150" />
    <radialGradient
       inkscape:collect="always"
       xlink:href="#orange-sphere-gradient"
       id="radialGradient8"
       gradientUnits="userSpaceOnUse"
       gradientTransform="matrix(0.5,0,0,0.5,436.46207,-11.407579)"
       cx="827.7688"
       cy="424.88464"
       fx="827.7688"
       fy="424.88464"
       r="150" />
    <radialGradient
       inkscape:collect="always"
       xlink:href="#red-sphere-gradient"
       id="radialGradient7"
       gradientUnits="userSpaceOnUse"
       gradientTransform="matrix(0.5,0,0,0.5,436.46207,-195.39198)"
       cx="827.7688"
       cy="424.88464"
       fx="827.7688"
       fy="424.88464"
       r="150" />
    <radialGradient
       inkscape:collect="always"
       xlink:href="#grey-sphere-gradent"
       id="radialGradient5"
       gradientUnits="userSpaceOnUse"
       gradientTransform="translate(-508.85971,-947.00064)"
       cx="827.7688"
       cy="424.88464"
       fx="827.7688"
       fy="424.88464"
       r="150" />
    <radialGradient
       inkscape:collect="always"
       xlink:href="#grey-sphere-gradent"
       id="radialGradient4"
       gradientUnits="userSpaceOnUse"
       gradientTransform="translate(-448.02707,-607.17159)"
       cx="827.7688"
       cy="424.88464"
       fx="827.7688"
       fy="424.88464"
       r="150" />
    <radialGradient
       inkscape:collect="always"
       xlink:href="#grey-sphere-gradent"
       id="radialGradient3"
       gradientUnits="userSpaceOnUse"
       gradientTransform="translate(-106.03208,-560.01389)"
       cx="827.7688"
       cy="424.88464"
       fx="827.7688"
       fy="424.88464"
       r="150" />
    <radialGradient
       inkscape:collect="always"
       xlink:href="#grey-sphere-gradent"
       id="radialGradient2"
       cx="827.7688"
       cy="424.88464"
       fx="827.7688"
       fy="424.88464"
       r="150"
       gradientUnits="userSpaceOnUse"
       gradientTransform="translate(44.499815,-870.69793)" />
    <radialGradient
       inkscape:collect="always"
       xlink:href="#grey-sphere-gradent"
       id="radialGradient1"
       gradientUnits="userSpaceOnUse"
       cx="827.7688"
       cy="424.88464"
       fx="827.7688"
       fy="424.88464"
       r="150"
       gradientTransform="translate(-204.46134,-1109.8689)" />
  </defs>
  <metadata
     id="metadata">
    <rdf:RDF>
      <cc:Work
         rdf:about="">
        <dc:format>image/svg+xml</dc:format>
        <dc:type
           rdf:resource="http://purl.org/dc/dcmitype/StillImage" />
        <dc:title>Splash</dc:title>
      </cc:Work>
    </rdf:RDF>
  </metadata>
  <rect
     style="display:inline;fill:url(#linearGradient3);fill-opacity:1;stroke:none;stroke-width:2.57812;stroke-miterlimit:4;stroke-dasharray:none"
     id="rect3"
     width="1000"
     height="660"
     x="0"
     y="0"
     inkscape:label="Background" />
  <g
     id="layer1"
     inkscape:label="Logo"
     transform="matrix(0.64453125,0,0,0.64453125,355.37207,13.586747)">
    <rect
       style="display:none;fill:#ff0000;fill-opacity:0.25486;stroke:none;stroke-width:4.07849;stroke-miterlimit:4;stroke-dasharray:none"
       id="rect2"
       width="815.70001"
       height="815.70001"
       x="80.299988"
       y="83.069954"
       inkscape:label="Bounding Box" />
    <g
       id="layer4"
       inkscape:label="Color Group">
      <g
         id="g3763"
         inkscape:label="Color Gaps (Hack)"
         style="display:inline">
        <path
           style="display:inline;fill:#c882ff;fill-opacity:1;stroke:none;stroke-width:1px;stroke-linecap:butt;stroke-linejoin:miter;stroke-opacity:1"
           d="M 249.71597,639.66995 825.16375,702.9312 810.04154,824.47293 Z"
           id="path12"
           inkscape:label="Blue Purple Gap"
           sodipodi:nodetypes="cccc" />
        <path
           style="display:inline;fill:#8494fd;fill-opacity:1;stroke:none;stroke-width:1px;stroke-linecap:butt;stroke-linejoin:miter;stroke-opacity:1"
           d="M 249.71597,639.66995 832,703.66996 v -128 z"
           id="path11"
           inkscape:label="Green Blue Gap"
           sodipodi:nodetypes="cccc" />
        <path
           style="display:inline;fill:#93f892;fill-opacity:1;stroke:none;stroke-width:1px;stroke-linecap:butt;stroke-linejoin:miter;stroke-opacity:1"
           d="M 249.71597,639.66995 825.15424,576.41079 809.01894,450.31063 Z"
           id="path10"
           inkscape:label="Yellow Green Gap"
           sodipodi:nodetypes="cccc" />
        <path
           style="display:inline;fill:#fff39d;fill-opacity:1;stroke:none;stroke-width:1px;stroke-linecap:butt;stroke-linejoin:miter;stroke-opacity:1"
           d="M 249.71597,639.66995 784.70189,333.06982 825.74171,446.77614 Z"
           id="path9"
           inkscape:label="Orange Yellow Gap"
           sodipodi:nodetypes="cccc" />
        <path
           style="display:inline;fill:#ffd48a;fill-opacity:1;stroke:none;stroke-width:1px;stroke-linecap:butt;stroke-linejoin:miter;stroke-opacity:1"
           d="M 249.71597,639.66995 765.1721,202.89754 826.67361,307.16347 Z"
           id="path8"
           inkscape:label="Red Orange Gap"
           sodipodi:nodetypes="cccc" />
        <text
           xml:space="preserve"
           style="font-style:normal;font-weight:normal;font-size:32px;line-height:1.25;font-family:sans-serif;display:none;fill:#000000;fill-opacity:1;stroke:none"
           x="51.149994"
           y="78.232452"
           id="text1"
           inkscape:label="Info"><tspan
             sodipodi:role="line"
             id="tspan1"
             x="0"
             y="0"
             style="font-style:normal;font-variant:normal;font-weight:bold;font-stretch:normal;font-size:32px;font-family:sans-serif;-inkscape-font-specification:'sans-serif Bold';fill:#ffffff;fill-opacity:1">Gaps hack:</tspan><tspan
             sodipodi:role="line"
             x="0"
             y="0"
             id="tspan2"
             style="font-size:32px;fill:#ffffff;fill-opacity:1">When exporting as PNG,</tspan><tspan
             sodipodi:role="line"
             x="0"
             y="0"
             id="tspan3"
             style="font-size:32px;fill:#ffffff;fill-opacity:1">the background shines through</tspan><tspan
             sodipodi:role="line"
             x="0"
             y="0"
             id="tspan4"
             style="font-size:32px;fill:#ffffff;fill-opacity:1">the gaps between rays.</tspan><tspan
             sodipodi:role="line"
             x="0"
             y="0"
             id="tspan5"
             style="font-size:32px;fill:#ffffff;fill-opacity:1">Thus, added colored fillers.</tspan></text>
      </g>
      <g
         id="layer6"
         inkscape:label="Color Rays"
         style="display:inline">
        <path
           style="display:inline;fill:#c882ff;fill-opacity:1;stroke:none;stroke-width:1px;stroke-linecap:butt;stroke-linejoin:miter;stroke-opacity:1"
           d="M 249.71597,639.66995 845.55051,772.22091 805.75681,893.142 Z"
           id="path7"
           inkscape:label="Purple Ray"
           sodipodi:nodetypes="cccc" />
        <path
           style="display:inline;fill:#8494fd;fill-opacity:1;stroke:none;stroke-width:1px;stroke-linecap:butt;stroke-linejoin:miter;stroke-opacity:1"
           d="M 249.71597,639.66995 832,639.66996 818.32749,766.19245 Z"
           id="path6"
           inkscape:label="Blue Ray"
           sodipodi:nodetypes="cccc" />
        <path
           style="display:inline;fill:#93f892;fill-opacity:1;stroke:none;stroke-width:1px;stroke-linecap:butt;stroke-linejoin:miter;stroke-opacity:1"
           d="M 249.71597,639.66995 832,639.66996 818.30848,513.15162 Z"
           id="path5"
           inkscape:label="Green Ray"
           sodipodi:nodetypes="cccc" />
        <path
           style="display:inline;fill:#fff39d;fill-opacity:1;stroke:none;stroke-width:1px;stroke-linecap:butt;stroke-linejoin:miter;stroke-opacity:1"
           d="M 249.71597,639.66995 804.92029,386.62126 846.56314,506.93102 Z"
           id="path4"
           inkscape:label="Yellow Ray"
           sodipodi:nodetypes="cccc" />
        <path
           style="display:inline;fill:#ffd48a;fill-opacity:1;stroke:none;stroke-width:1px;stroke-linecap:butt;stroke-linejoin:miter;stroke-opacity:1"
           d="M 249.71597,639.66995 794.68004,252.07744 858.66718,362.24951 Z"
           id="path3"
           inkscape:label="Orange Ray"
           sodipodi:nodetypes="cccc" />
        <path
           style="display:inline;fill:#ff8582;fill-opacity:1;stroke:none;stroke-width:1px;stroke-linecap:butt;stroke-linejoin:miter;stroke-opacity:1"
           d="m 249.71597,639.66995 536.69149,-537.51459 83.09058,96.7788 z"
           id="path2"
           inkscape:label="Red Ray"
           sodipodi:nodetypes="cccc" />
      </g>
      <g
         id="layer5"
         inkscape:label="Color Spheres"
         style="display:inline"
         transform="matrix(0.85333333,0,0,0.85333333,117.76,117.42996)">
        <circle
           style="display:inline;opacity:1;fill:url(#radialGradient12);fill-opacity:1;stroke:none;stroke-width:2;stroke-miterlimit:4;stroke-dasharray:none;stroke-dashoffset:0;stroke-opacity:1"
           id="circle12"
           cx="837"
           cy="840.63281"
           inkscape:label="Purple Sphere"
           r="75" />
        <circle
           style="display:inline;opacity:1;fill:url(#radialGradient11);fill-opacity:1;stroke:none;stroke-width:2;stroke-miterlimit:4;stroke-dasharray:none;stroke-dashoffset:0;stroke-opacity:1"
           id="circle11"
           cx="837"
           cy="687"
           inkscape:label="Blue Sphere"
           r="75" />
        <circle
           style="display:inline;opacity:1;fill:url(#radialGradient10);fill-opacity:1;stroke:none;stroke-width:2;stroke-miterlimit:4;stroke-dasharray:none;stroke-dashoffset:0;stroke-opacity:1"
           id="circle10"
           cx="837"
           cy="537"
           inkscape:label="Green Sphere"
           r="75" />
        <circle
           style="display:inline;opacity:1;fill:url(#radialGradient9);fill-opacity:1;stroke:none;stroke-width:2;stroke-miterlimit:4;stroke-dasharray:none;stroke-dashoffset:0;stroke-opacity:1"
           id="circle9"
           cx="837"
           cy="383.41406"
           inkscape:label="Yellow Sphere"
           r="75" />
        <circle
           style="display:inline;opacity:1;fill:url(#radialGradient8);fill-opacity:1;stroke:none;stroke-width:2;stroke-miterlimit:4;stroke-dasharray:none;stroke-dashoffset:0;stroke-opacity:1"
           id="circle8"
           cx="837"
           cy="218.71873"
           inkscape:label="Orange Sphere"
           r="75" />
        <circle
           style="display:inline;opacity:1;fill:url(#radialGradient7);fill-opacity:1;stroke:none;stroke-width:2;stroke-miterlimit:4;stroke-dasharray:none;stroke-dashoffset:0;stroke-opacity:1"
           id="circle7"
           cx="837"
           cy="34.734364"
           inkscape:label="Red Sphere"
           r="75" />
      </g>
    </g>
    <g
       id="layer2"
       inkscape:label="Prism Group"
       style="display:inline;opacity:1"
       transform="matrix(0.60910203,0,0,0.60910203,117.02234,242.21312)">
      <rect
         style="display:inline;fill:url(#linearGradient1);fill-opacity:1;stroke:none;stroke-width:9.81495;stroke-miterlimit:4;stroke-dasharray:none"
         id="rect1"
         width="1144.1942"
         height="13.134089"
         x="-926.34296"
         y="645.9621"
         inkscape:label="White Ray" />
      <path
         sodipodi:type="star"
         style="display:inline;opacity:1;fill:#ffffff;fill-opacity:1;stroke:none;stroke-width:3.84;stroke-miterlimit:4;stroke-dasharray:none"
         id="path1"
         sodipodi:sides="3"
         sodipodi:cx="217.85124"
         sodipodi:cy="652.52917"
         sodipodi:r1="221.7025"
         sodipodi:r2="110.85124"
         sodipodi:arg1="-1.5707963"
         sodipodi:arg2="-0.52359878"
         inkscape:flatsided="true"
         inkscape:rounded="0"
         inkscape:randomized="0"
         d="m 217.85125,430.82668 191.99999,332.55375 -383.999997,-1e-5 z"
         inkscape:transform-center-y="-55.425611"
         inkscape:label="Prism"
         inkscape:transform-center-x="-1.1231721e-05" />
      <g
         id="layer3"
         inkscape:label="Grey Spheres"
         style="display:inline"
         transform="matrix(0.14235708,0,0,0.14235708,138.62955,703.59234)">
        <circle
           style="display:none;opacity:1;fill:#ffff00;fill-opacity:0.25;stroke:none;stroke-width:1.97782"
           id="circle6"
           cx="556.49982"
           cy="-358.69794"
           r="445"
           inkscape:label="Centering Circle" />
        <circle
           style="display:inline;opacity:1;fill:url(#radialGradient5);fill-opacity:1;stroke:none;stroke-width:4;stroke-miterlimit:4;stroke-dasharray:none;stroke-dashoffset:0;stroke-opacity:1"
           id="circle5"
           cx="292.21619"
           cy="-486.74799"
           r="150"
           inkscape:label="Grey Sphere 5" />
        <circle
           style="display:inline;opacity:1;fill:url(#radialGradient4);fill-opacity:1;stroke:none;stroke-width:4;stroke-miterlimit:4;stroke-dasharray:none;stroke-dashoffset:0;stroke-opacity:1"
           id="circle4"
           cx="353.04883"
           cy="-146.91893"
           r="150"
           inkscape:label="Grey Sphere 4" />
        <circle
           style="display:inline;opacity:1;fill:url(#radialGradient3);fill-opacity:1;stroke:none;stroke-width:4;stroke-miterlimit:4;stroke-dasharray:none;stroke-dashoffset:0;stroke-opacity:1"
           id="circle3"
           cx="695.04382"
           cy="-99.761215"
           r="150"
           inkscape:label="Grey Sphere 3" />
        <circle
           style="display:inline;opacity:1;fill:url(#radialGradient2);fill-opacity:1;stroke:none;stroke-width:4;stroke-miterlimit:4;stroke-dasharray:none;stroke-dashoffset:0;stroke-opacity:1"
           id="circle2"
           cx="845.57568"
           cy="-410.44528"
           r="150"
           inkscape:label="Grey Sphere 2" />
        <circle
           style="display:inline;opacity:1;fill:url(#radialGradient1);fill-opacity:1;stroke:none;stroke-width:4;stroke-miterlimit:4;stroke-dasharray:none;stroke-dashoffset:0;stroke-opacity:1"
           id="circle1"
           cx="596.61456"
           cy="-649.61621"
           r="150"
           inkscape:label="Grey Sphere 1" />
      </g>
    </g>
  </g>
  <g
     id="layer7"
     inkscape:label="Text"
     transform="matrix(2.0676075,0,0,2.0676075,-30.298444,-47.285072)">
    <text
       xml:space="preserve"
       style="font-style:normal;font-variant:normal;font-weight:normal;font-stretch:normal;line-height:0%;font-family:'Akkurat Office';-inkscape-font-specification:'Akkurat Office';text-align:end;letter-spacing:0px;word-spacing:0px;text-anchor:end;fill:#ffffff;fill-opacity:1;stroke:none"
       x="245.5002"
       y="153.28711"
       id="text3930"
       inkscape:label="Version"><tspan
         style="font-style:normal;font-variant:normal;font-weight:normal;font-stretch:normal;font-size:10px;line-height:1.25;font-family:Arial;-inkscape-font-specification:Arial;text-align:end;text-anchor:end;fill:#ffffff;fill-opacity:1"
         sodipodi:role="line"
         x="245.5002"
         y="153.28711"
         id="tspan9709">Version 2.0</tspan></text>
    <g
       aria-label="SCCE Meta Tooling Suite"
       style="font-style:normal;font-variant:normal;font-weight:normal;font-stretch:normal;line-height:0%;font-family:'Akkurat Office';-inkscape-font-specification:'Akkurat Office';letter-spacing:0px;word-spacing:0px;fill-opacity:1;stroke:none"
       id="text4130"
       transform="translate(10.508934,-691.87507)"
       inkscape:label="SCCE Meta Tooling Suite">
      <path
         d="m 228.2242,823.97132 q 0,1.61041 0.66667,2.48488 0.66668,0.87447 1.94808,0.87447 1.013,0 1.61907,-0.40693 0.61472,-0.40693 0.83117,-1.03032 l 1.36799,0.38962 q -0.83984,2.21648 -3.81823,2.21648 -2.07795,0 -3.16887,-1.23811 -1.08227,-1.23811 -1.08227,-3.6797 0,-2.32038 1.08227,-3.55849 1.09092,-1.23811 3.10826,-1.23811 4.12992,0 4.12992,4.97842 v 0.20779 z m 5.07365,-1.19482 q -0.12987,-1.48054 -0.75325,-2.15587 -0.62339,-0.68399 -1.79223,-0.68399 -1.13422,0 -1.80089,0.76192 -0.65802,0.75325 -0.70997,2.07794 z"
         style="font-style:normal;font-variant:normal;font-weight:normal;font-stretch:normal;font-size:17.7318px;line-height:1.25;font-family:Arial;-inkscape-font-specification:Arial;fill:#ffffff;fill-opacity:1"
         id="path1049"
         inkscape:label="e" />
      <path
         d="m 225.71335,828.25709 q -0.77057,0.20779 -1.57578,0.20779 -1.87015,0 -1.87015,-2.12123 v -6.25116 h -1.08226 v -1.13422 h 1.14287 l 0.45888,-2.09526 h 1.03897 v 2.09526 h 1.73163 v 1.13422 h -1.73163 v 5.91349 q 0,0.67533 0.21646,0.95239 0.22511,0.2684 0.77057,0.2684 0.31169,0 0.90044,-0.12121 z"
         style="font-style:normal;font-variant:normal;font-weight:normal;font-stretch:normal;font-size:17.7318px;line-height:1.25;font-family:Arial;-inkscape-font-specification:Arial;fill:#ffffff;fill-opacity:1"
         id="path1047"
         inkscape:label="t" />
      <path
         d="m 218.15481,816.96691 v -1.4892 h 1.55846 v 1.4892 z m 0,11.35944 v -9.36808 h 1.55846 v 9.36808 z"
         style="font-style:normal;font-variant:normal;font-weight:normal;font-stretch:normal;font-size:17.7318px;line-height:1.25;font-family:Arial;-inkscape-font-specification:Arial;fill:#ffffff;fill-opacity:1"
         id="path1045"
         inkscape:label="i" />
      <path
         d="m 209.81704,818.95827 v 5.93947 q 0,0.92642 0.18183,1.43725 0.18182,0.51083 0.58009,0.73594 0.39827,0.22511 1.16884,0.22511 1.12556,0 1.77492,-0.77057 0.64936,-0.77058 0.64936,-2.13856 v -5.42864 h 1.55846 v 7.36806 q 0,1.63638 0.052,2.00002 h -1.47188 q -0.009,-0.0433 -0.0173,-0.23376 -0.009,-0.19048 -0.026,-0.43291 -0.009,-0.25109 -0.026,-0.93508 h -0.026 q -0.53681,0.96971 -1.24677,1.37664 -0.70131,0.39828 -1.74894,0.39828 -1.54115,0 -2.25977,-0.76192 -0.70996,-0.77057 -0.70996,-2.53682 v -6.24251 z"
         style="font-style:normal;font-variant:normal;font-weight:normal;font-stretch:normal;font-size:17.7318px;line-height:1.25;font-family:Arial;-inkscape-font-specification:Arial;fill:#ffffff;fill-opacity:1"
         id="path1043"
         inkscape:label="u" />
      <path
         d="m 206.26722,824.95835 q 0,1.68833 -1.32469,2.61475 -1.31604,0.92642 -3.71433,0.92642 -4.45893,0 -5.1689,-3.09961 l 1.60175,-0.32035 q 0.27706,1.09958 1.17751,1.61907 0.90044,0.51083 2.45024,0.51083 1.60176,0 2.46757,-0.54546 0.87447,-0.55412 0.87447,-1.61907 0,-0.59741 -0.27706,-0.96971 -0.2684,-0.3723 -0.76192,-0.61473 -0.49351,-0.24242 -1.1775,-0.40693 -0.68399,-0.1645 -1.51517,-0.35498 -1.44591,-0.32035 -2.19916,-0.6407 -0.7446,-0.32035 -1.17751,-0.70997 -0.4329,-0.39827 -0.66667,-0.92641 -0.22511,-0.52815 -0.22511,-1.21214 0,-1.56712 1.19482,-2.41562 1.20348,-0.84849 3.43727,-0.84849 2.07795,0 3.17753,0.6407 1.09958,0.63204 1.54114,2.16453 l -1.62772,0.28572 q -0.2684,-0.96971 -1.02166,-1.40262 -0.75326,-0.44156 -2.08661,-0.44156 -1.46322,0 -2.23379,0.48485 -0.77057,0.48486 -0.77057,1.44591 0,0.56278 0.29437,0.93507 0.30304,0.36365 0.86581,0.62339 0.56278,0.25108 2.24246,0.62338 0.56277,0.12987 1.11689,0.2684 0.56278,0.12988 1.07361,0.32035 0.51083,0.18183 0.95239,0.43291 0.45022,0.25109 0.77923,0.61473 0.32901,0.36364 0.51083,0.85715 0.19048,0.49351 0.19048,1.16019 z"
         style="font-style:normal;font-variant:normal;font-weight:normal;font-stretch:normal;font-size:17.7318px;line-height:1.25;font-family:Arial;-inkscape-font-specification:Arial;fill:#ffffff;fill-opacity:1"
         id="path1041"
         inkscape:label="S" />
      <path
         d="m 185.21067,832.00605 q -1.53248,0 -2.44158,-0.60606 -0.90911,-0.59741 -1.16885,-1.70565 l 1.56712,-0.22511 q 0.15584,0.64935 0.68399,0.99568 0.5368,0.35498 1.40261,0.35498 2.32904,0 2.32904,-2.7273 v -1.50652 h -0.0173 q -0.44156,0.90045 -1.21213,1.35933 -0.77058,0.45022 -1.80089,0.45022 -1.72297,0 -2.53683,-1.14287 -0.80521,-1.14287 -0.80521,-3.59312 0,-2.48488 0.86582,-3.66238 0.87447,-1.18616 2.64938,-1.18616 0.99568,0 1.72296,0.45888 0.73594,0.45022 1.13422,1.29006 h 0.0173 q 0,-0.25975 0.0346,-0.90045 0.0346,-0.6407 0.0693,-0.70131 h 1.48054 q -0.052,0.46754 -0.052,1.93942 v 7.16026 q 0,3.9481 -3.92213,3.9481 z m 2.37233,-8.36374 q 0,-1.14287 -0.31169,-1.96539 -0.3117,-0.83118 -0.88313,-1.26408 -0.56278,-0.44157 -1.2814,-0.44157 -1.19482,0 -1.74028,0.86581 -0.54547,0.86582 -0.54547,2.80523 0,1.92211 0.51083,2.76194 0.51083,0.83984 1.74894,0.83984 0.73594,0 1.30738,-0.43291 0.57143,-0.4329 0.88313,-1.23811 0.31169,-0.81386 0.31169,-1.93076 z"
         style="font-style:normal;font-variant:normal;font-weight:normal;font-stretch:normal;font-size:17.7318px;line-height:1.25;font-family:Arial;-inkscape-font-specification:Arial;fill:#ffffff;fill-opacity:1"
         id="path1039"
         inkscape:label="g" />
      <path
         d="m 177.73873,828.32635 v -5.93946 q 0,-0.92642 -0.18182,-1.43725 -0.18182,-0.51083 -0.58009,-0.73594 -0.39827,-0.22511 -1.16885,-0.22511 -1.12555,0 -1.77491,0.77057 -0.64936,0.77057 -0.64936,2.13856 v 5.42863 h -1.55846 v -7.36805 q 0,-1.63639 -0.052,-2.00003 h 1.47188 q 0.009,0.0433 0.0173,0.23377 0.009,0.19048 0.0173,0.44157 0.0173,0.24242 0.0346,0.92642 h 0.026 q 0.5368,-0.96971 1.23811,-1.36799 0.70997,-0.40693 1.7576,-0.40693 1.54114,0 2.25111,0.77057 0.71862,0.76192 0.71862,2.52817 v 6.2425 z"
         style="font-style:normal;font-variant:normal;font-weight:normal;font-stretch:normal;font-size:17.7318px;line-height:1.25;font-family:Arial;-inkscape-font-specification:Arial;fill:#ffffff;fill-opacity:1"
         id="path1037"
         inkscape:label="n" />
      <path
         d="m 167.83384,816.96691 v -1.4892 h 1.55846 v 1.4892 z m 0,11.35944 v -9.36808 h 1.55846 v 9.36808 z"
         style="font-style:normal;font-variant:normal;font-weight:normal;font-stretch:normal;font-size:17.7318px;line-height:1.25;font-family:Arial;-inkscape-font-specification:Arial;fill:#ffffff;fill-opacity:1"
         id="path1035"
         inkscape:label="i" />
      <path
         d="m 163.8944,828.32635 v -12.84864 h 1.55846 v 12.84864 z"
         style="font-style:normal;font-variant:normal;font-weight:normal;font-stretch:normal;font-size:17.7318px;line-height:1.25;font-family:Arial;-inkscape-font-specification:Arial;fill:#ffffff;fill-opacity:1"
         id="path1033"
         inkscape:label="l" />
      <path
         d="m 161.94633,823.63366 q 0,2.4589 -1.08227,3.66238 -1.08226,1.20348 -3.14289,1.20348 -2.05198,0 -3.09961,-1.24677 -1.04763,-1.25543 -1.04763,-3.61909 0,-4.84855 4.19918,-4.84855 2.14722,0 3.16022,1.18616 1.013,1.17751 1.013,3.66239 z m -1.63639,0 q 0,-1.93942 -0.58009,-2.81389 -0.57144,-0.88313 -1.93076,-0.88313 -1.36798,0 -1.98271,0.90044 -0.60607,0.89179 -0.60607,2.79658 0,1.85283 0.59741,2.78791 0.60607,0.92642 1.89613,0.92642 1.40261,0 2.00002,-0.90045 0.60607,-0.90044 0.60607,-2.81388 z"
         style="font-style:normal;font-variant:normal;font-weight:normal;font-stretch:normal;font-size:17.7318px;line-height:1.25;font-family:Arial;-inkscape-font-specification:Arial;fill:#ffffff;fill-opacity:1"
         id="path1031"
         inkscape:label="o" />
      <path
         d="m 152.07607,823.63366 q 0,2.4589 -1.08226,3.66238 -1.08227,1.20348 -3.1429,1.20348 -2.05197,0 -3.0996,-1.24677 -1.04764,-1.25543 -1.04764,-3.61909 0,-4.84855 4.19919,-4.84855 2.14721,0 3.16021,1.18616 1.013,1.17751 1.013,3.66239 z m -1.63638,0 q 0,-1.93942 -0.5801,-2.81389 -0.57143,-0.88313 -1.93076,-0.88313 -1.36798,0 -1.9827,0.90044 -0.60607,0.89179 -0.60607,2.79658 0,1.85283 0.59741,2.78791 0.60607,0.92642 1.89613,0.92642 1.40261,0 2.00002,-0.90045 0.60607,-0.90044 0.60607,-2.81388 z"
         style="font-style:normal;font-variant:normal;font-weight:normal;font-stretch:normal;font-size:17.7318px;line-height:1.25;font-family:Arial;-inkscape-font-specification:Arial;fill:#ffffff;fill-opacity:1"
         id="path1029"
         inkscape:label="o" />
      <path
         d="m 140.32701,817.47774 v 10.84861 h -1.64504 v -10.84861 h -4.19053 v -1.35067 h 10.0261 v 1.35067 z"
         style="font-style:normal;font-variant:normal;font-weight:normal;font-stretch:normal;font-size:17.7318px;line-height:1.25;font-family:Arial;-inkscape-font-specification:Arial;fill:#ffffff;fill-opacity:1"
         id="path1027"
         inkscape:label="T" />
      <path
         d="m 123.20126,828.49952 q -1.41127,0 -2.12124,-0.7446 -0.70997,-0.7446 -0.70997,-2.04332 0,-1.45456 0.9524,-2.23379 0.96105,-0.77923 3.09094,-0.83118 l 2.10393,-0.0346 v -0.51083 q 0,-1.14287 -0.48486,-1.63638 -0.48485,-0.49352 -1.52383,-0.49352 -1.04763,0 -1.52382,0.35499 -0.4762,0.35498 -0.57144,1.13421 l -1.62773,-0.14719 q 0.39828,-2.52817 3.75763,-2.52817 1.76625,0 2.65804,0.81386 0.89178,0.80521 0.89178,2.3377 v 4.03468 q 0,0.69265 0.18182,1.04763 0.18182,0.34632 0.69265,0.34632 0.22511,0 0.51083,-0.0606 v 0.96971 q -0.58875,0.13853 -1.20348,0.13853 -0.86581,0 -1.26408,-0.45023 -0.38962,-0.45888 -0.44156,-1.42858 h -0.052 q -0.59741,1.0736 -1.39396,1.52382 -0.78789,0.44157 -1.9221,0.44157 z m 0.35498,-1.16885 q 0.85715,0 1.52383,-0.38961 0.66667,-0.38962 1.04763,-1.06495 0.38962,-0.68399 0.38962,-1.40262 v -0.77057 l -1.70565,0.0346 q -1.09958,0.0173 -1.67102,0.22511 -0.56278,0.2078 -0.86581,0.64071 -0.30303,0.4329 -0.30303,1.13421 0,0.76191 0.40693,1.1775 0.41559,0.41559 1.1775,0.41559 z"
         style="font-style:normal;font-variant:normal;font-weight:normal;font-stretch:normal;font-size:17.7318px;line-height:1.25;font-family:Arial;-inkscape-font-specification:Arial;fill:#ffffff;fill-opacity:1"
         id="path1025"
         inkscape:label="a" />
      <path
         d="m 119.49559,828.25709 q -0.77058,0.20779 -1.57578,0.20779 -1.87015,0 -1.87015,-2.12123 v -6.25116 h -1.08227 v -1.13422 h 1.14287 l 0.45888,-2.09526 h 1.03898 v 2.09526 h 1.73162 v 1.13422 h -1.73162 v 5.91349 q 0,0.67533 0.21645,0.95239 0.22511,0.2684 0.77057,0.2684 0.31169,0 0.90045,-0.12121 z"
         style="font-style:normal;font-variant:normal;font-weight:normal;font-stretch:normal;font-size:17.7318px;line-height:1.25;font-family:Arial;-inkscape-font-specification:Arial;fill:#ffffff;fill-opacity:1"
         id="path1023"
         inkscape:label="t" />
      <path
         d="m 107.21838,823.97132 q 0,1.61041 0.66667,2.48488 0.66668,0.87447 1.94808,0.87447 1.013,0 1.61906,-0.40693 0.61473,-0.40693 0.83118,-1.03032 l 1.36799,0.38962 q -0.83984,2.21648 -3.81823,2.21648 -2.07795,0 -3.16887,-1.23811 -1.08227,-1.23811 -1.08227,-3.6797 0,-2.32038 1.08227,-3.55849 1.09092,-1.23811 3.10826,-1.23811 4.12992,0 4.12992,4.97842 v 0.20779 z m 5.07365,-1.19482 q -0.12987,-1.48054 -0.75325,-2.15587 -0.62339,-0.68399 -1.79223,-0.68399 -1.13422,0 -1.80089,0.76192 -0.65802,0.75325 -0.70997,2.07794 z"
         style="font-style:normal;font-variant:normal;font-weight:normal;font-stretch:normal;font-size:17.7318px;line-height:1.25;font-family:Arial;-inkscape-font-specification:Arial;fill:#ffffff;fill-opacity:1"
         id="path1021"
         inkscape:label="e" />
      <path
         d="m 101.86766,828.32635 v -8.13862 q 0,-1.35067 0.0779,-2.59744 -0.42425,1.5498 -0.76191,2.42427 l -3.151557,8.31179 h -1.160187 l -3.194845,-8.31179 -0.484855,-1.47188 -0.285717,-0.95239 0.02597,0.96105 0.03463,1.63639 v 8.13862 H 91.49521 v -12.19928 h 2.173187 l 3.246793,8.45898 q 0.173163,0.51083 0.329009,1.09958 0.164504,0.58009 0.216453,0.83984 0.06926,-0.34633 0.285717,-1.04764 0.225111,-0.70996 0.303034,-0.89178 l 3.186187,-8.45898 h 2.12123 v 12.19928 z"
         style="font-style:normal;font-variant:normal;font-weight:normal;font-stretch:normal;font-size:17.7318px;line-height:1.25;font-family:Arial;-inkscape-font-specification:Arial;fill:#ffffff;fill-opacity:1"
         id="path1019"
         inkscape:label="M" />
      <path
         d="m 74.733124,828.32635 v -12.19928 h 9.255526 v 1.35067 h -7.601826 v 3.91346 h 7.082339 v 1.33335 h -7.082339 v 4.25114 h 7.956809 v 1.35066 z"
         style="font-style:normal;font-variant:normal;font-weight:normal;font-stretch:normal;font-size:17.7318px;line-height:1.25;font-family:Arial;-inkscape-font-specification:Arial;fill:#ffffff;fill-opacity:1"
         id="path1017"
         inkscape:label="E" />
      <path
         d="m 67.321778,817.29592 q -2.025999,0 -3.151554,1.30737 -1.125555,1.29872 -1.125555,3.56714 0,2.24246 1.168845,3.61044 1.177504,1.35932 3.177529,1.35932 2.562802,0 3.852861,-2.53682 l 1.350666,0.67533 q -0.753256,1.57578 -2.121238,2.3983 -1.359324,0.82252 -3.160212,0.82252 -1.844179,0 -3.194845,-0.76192 -1.342008,-0.77057 -2.051974,-2.1905 -0.701307,-1.42859 -0.701307,-3.37667 0,-2.91778 1.575777,-4.57148 1.575777,-1.6537 4.36369,-1.6537 1.948077,0 3.255452,0.76191 1.307375,0.76192 1.922102,2.25977 l -1.567119,0.51949 q -0.424248,-1.06495 -1.367983,-1.62773 -0.935076,-0.56277 -2.225135,-0.56277 z"
         style="font-style:normal;font-variant:normal;font-weight:normal;font-stretch:normal;font-size:17.7318px;line-height:1.25;font-family:Arial;-inkscape-font-specification:Arial;fill:#ffffff;fill-opacity:1"
         id="path1015"
         inkscape:label="C" />
      <path
         d="m 54.507766,817.29592 q -2.025999,0 -3.151554,1.30737 -1.125555,1.29872 -1.125555,3.56714 0,2.24246 1.168846,3.61044 1.177503,1.35932 3.177528,1.35932 2.562802,0 3.852862,-2.53682 l 1.350666,0.67533 q -0.753256,1.57578 -2.121239,2.3983 -1.359324,0.82252 -3.160212,0.82252 -1.844179,0 -3.194845,-0.76192 -1.342008,-0.77057 -2.051973,-2.1905 -0.701308,-1.42859 -0.701308,-3.37667 0,-2.91778 1.575778,-4.57148 1.575777,-1.6537 4.36369,-1.6537 1.948076,0 3.255451,0.76191 1.307376,0.76192 1.922102,2.25977 l -1.567119,0.51949 q -0.424248,-1.06495 -1.367982,-1.62773 -0.935077,-0.56277 -2.225136,-0.56277 z"
         style="font-style:normal;font-variant:normal;font-weight:normal;font-stretch:normal;font-size:17.7318px;line-height:1.25;font-family:Arial;-inkscape-font-specification:Arial;fill:#ffffff;fill-opacity:1"
         id="path1013"
         inkscape:label="C" />
      <path
         d="m 46.81936,824.95835 q 0,1.68833 -1.324692,2.61475 -1.316034,0.92642 -3.714332,0.92642 -4.458929,0 -5.168895,-3.09961 l 1.601751,-0.32035 q 0.27706,1.09958 1.177504,1.61907 0.900444,0.51083 2.450247,0.51083 1.601751,0 2.467563,-0.54546 0.87447,-0.55412 0.87447,-1.61907 0,-0.59741 -0.27706,-0.96971 -0.268402,-0.3723 -0.761914,-0.61473 -0.493513,-0.24242 -1.177504,-0.40693 -0.683991,-0.1645 -1.51517,-0.35498 -1.445906,-0.32035 -2.199162,-0.6407 -0.744598,-0.32035 -1.177503,-0.70997 -0.432906,-0.39827 -0.666675,-0.92641 -0.225111,-0.52815 -0.225111,-1.21214 0,-1.56712 1.19482,-2.41562 1.203478,-0.84849 3.437272,-0.84849 2.077947,0 3.177528,0.6407 1.099581,0.63204 1.541145,2.16453 l -1.627726,0.28572 q -0.268402,-0.96971 -1.021658,-1.40262 -0.753256,-0.44156 -2.086606,-0.44156 -1.463221,0 -2.233793,0.48485 -0.770573,0.48486 -0.770573,1.44591 0,0.56278 0.294376,0.93507 0.303034,0.36365 0.865812,0.62339 0.562777,0.25108 2.242452,0.62338 0.562777,0.12987 1.116897,0.2684 0.562777,0.12988 1.073606,0.32035 0.510829,0.18183 0.952393,0.43291 0.450222,0.25109 0.77923,0.61473 0.329009,0.36364 0.510829,0.85715 0.190479,0.49351 0.190479,1.16019 z"
         style="font-style:normal;font-variant:normal;font-weight:normal;font-stretch:normal;font-size:17.7318px;line-height:1.25;font-family:Arial;-inkscape-font-specification:Arial;fill:#ffffff;fill-opacity:1"
         id="path1011"
         inkscape:label="S" />
    </g>
    <g
       id="g3946"
       transform="translate(10.993184,-692.31846)"
       inkscape:label="Cinco">
      <path
         d="m 234.42401,784.62844 q 0,6.2667 -2.41026,10.9738 -2.38191,4.70711 -6.86217,7.2308 -4.48026,2.52369 -10.57682,2.52369 -6.15327,0 -10.63353,-2.49533 -4.4519,-2.49534 -6.80545,-7.20244 -2.35356,-4.73547 -2.35356,-11.03052 0,-9.58435 5.24588,-14.972 5.24587,-5.41601 14.60337,-5.41601 6.09656,0 10.57682,2.43862 4.48026,2.41027 6.83381,7.03231 2.38191,4.62204 2.38191,10.91708 z m -5.52943,0 q 0,-7.45764 -3.743,-11.71105 -3.71465,-4.25341 -10.52011,-4.25341 -6.86217,0 -10.60517,4.1967 -3.743,4.19669 -3.743,11.76776 0,7.51436 3.77136,11.93791 3.79971,4.39519 10.5201,4.39519 6.91888,0 10.60517,-4.25341 3.71465,-4.28177 3.71465,-12.07969 z"
         style="font-size:58.0732px;line-height:1.25;fill:#ffffff;fill-opacity:1"
         id="path1005"
         inkscape:label="o" />
      <path
         d="m 172.52271,768.66398 q -6.63532,0 -10.32161,4.28176 -3.68629,4.25341 -3.68629,11.6827 0,7.34423 3.82807,11.82449 3.85642,4.4519 10.40667,4.4519 8.3934,0 12.61846,-8.30833 l 4.42354,2.21177 q -2.46697,5.16081 -6.94723,7.85464 -4.45191,2.69382 -10.34997,2.69382 -6.03984,0 -10.46339,-2.49533 -4.39519,-2.52369 -6.72039,-7.17409 -2.29684,-4.67875 -2.29684,-11.05887 0,-9.55599 5.1608,-14.972 5.16081,-5.41601 14.29146,-5.41601 6.38012,0 10.66189,2.49533 4.28176,2.49534 6.29504,7.40094 l -5.13244,1.70136 q -1.38945,-3.48779 -4.48026,-5.33094 -3.06246,-1.84314 -7.28751,-1.84314 z"
         style="font-size:58.0732px;line-height:1.25;fill:#ffffff;fill-opacity:1"
         id="path1003"
         inkscape:label="c" />
      <path
         d="m 138.77898,804.78961 -21.38048,-34.02728 0.14178,2.75053 0.14178,4.73547 v 26.54128 h -4.82053 v -39.9537 h 6.29505 l 21.60733,34.25413 q -0.34028,-5.55779 -0.34028,-8.05312 v -26.20101 h 4.87725 v 39.9537 z"
         style="font-size:58.0732px;line-height:1.25;fill:#ffffff;fill-opacity:1"
         id="path1001"
         inkscape:label="n" />
      <path
         d="m 97.35076,804.78961 v -39.9537 h 5.41601 v 39.9537 z"
         style="font-size:58.0732px;line-height:1.25;fill:#ffffff;fill-opacity:1"
         id="path999"
         inkscape:label="i" />
      <path
         d="m 63.809155,753.81253 q -9.237153,0 -14.368905,5.96073 -5.131751,5.92125 -5.131751,16.2637 0,10.22403 5.329126,16.46109 5.368602,6.19757 14.48733,6.19757 11.684604,0 17.56638,-11.56618 l 6.158102,3.07905 q -3.434326,7.18446 -9.671378,10.93458 -6.197577,3.75013 -14.408379,3.75013 -8.408178,0 -14.56628,-3.4738 -6.118627,-3.51328 -9.355578,-9.98718 -3.197476,-6.51338 -3.197476,-15.39526 0,-13.30307 7.184452,-20.8428 7.184453,-7.53973 19.895407,-7.53973 8.881878,0 14.842604,3.4738 5.960727,3.4738 8.763453,10.30298 l -7.144977,2.3685 q -1.934276,-4.85543 -6.237052,-7.4213 -4.263301,-2.56588 -10.145078,-2.56588 z"
         style="font-size:80.8448px;line-height:1.25;display:inline;fill:#ffffff;fill-opacity:1"
         id="path1008"
         inkscape:label="C" />
    </g>
  </g>
</svg>
